%YAML 1.1
%TAG !u! tag:unity3d.com,2011:
--- !u!29 &1
OcclusionCullingSettings:
  m_ObjectHideFlags: 0
  serializedVersion: 2
  m_OcclusionBakeSettings:
    smallestOccluder: 5
    smallestHole: 0.25
    backfaceThreshold: 100
  m_SceneGUID: 00000000000000000000000000000000
  m_OcclusionCullingData: {fileID: 0}
--- !u!104 &2
RenderSettings:
  m_ObjectHideFlags: 0
  serializedVersion: 9
  m_Fog: 0
  m_FogColor: {r: 0.5, g: 0.5, b: 0.5, a: 1}
  m_FogMode: 3
  m_FogDensity: 0.01
  m_LinearFogStart: 0
  m_LinearFogEnd: 300
  m_AmbientSkyColor: {r: 0.212, g: 0.227, b: 0.259, a: 1}
  m_AmbientEquatorColor: {r: 0.114, g: 0.125, b: 0.133, a: 1}
  m_AmbientGroundColor: {r: 0.047, g: 0.043, b: 0.035, a: 1}
  m_AmbientIntensity: 1
  m_AmbientMode: 3
  m_SubtractiveShadowColor: {r: 0.42, g: 0.478, b: 0.627, a: 1}
  m_SkyboxMaterial: {fileID: 0}
  m_HaloStrength: 0.5
  m_FlareStrength: 1
  m_FlareFadeSpeed: 3
  m_HaloTexture: {fileID: 0}
  m_SpotCookie: {fileID: 10001, guid: 0000000000000000e000000000000000, type: 0}
  m_DefaultReflectionMode: 0
  m_DefaultReflectionResolution: 128
  m_ReflectionBounces: 1
  m_ReflectionIntensity: 1
  m_CustomReflection: {fileID: 0}
  m_Sun: {fileID: 0}
  m_IndirectSpecularColor: {r: 0, g: 0, b: 0, a: 1}
  m_UseRadianceAmbientProbe: 0
--- !u!157 &3
LightmapSettings:
  m_ObjectHideFlags: 0
  serializedVersion: 11
  m_GIWorkflowMode: 1
  m_GISettings:
    serializedVersion: 2
    m_BounceScale: 1
    m_IndirectOutputScale: 1
    m_AlbedoBoost: 1
    m_EnvironmentLightingMode: 0
    m_EnableBakedLightmaps: 0
    m_EnableRealtimeLightmaps: 0
  m_LightmapEditorSettings:
    serializedVersion: 12
    m_Resolution: 2
    m_BakeResolution: 40
    m_AtlasSize: 1024
    m_AO: 0
    m_AOMaxDistance: 1
    m_CompAOExponent: 1
    m_CompAOExponentDirect: 0
    m_ExtractAmbientOcclusion: 0
    m_Padding: 2
    m_LightmapParameters: {fileID: 0}
    m_LightmapsBakeMode: 1
    m_TextureCompression: 1
    m_FinalGather: 0
    m_FinalGatherFiltering: 1
    m_FinalGatherRayCount: 256
    m_ReflectionCompression: 2
    m_MixedBakeMode: 2
    m_BakeBackend: 1
    m_PVRSampling: 1
    m_PVRDirectSampleCount: 32
    m_PVRSampleCount: 512
    m_PVRBounces: 2
    m_PVREnvironmentSampleCount: 256
    m_PVREnvironmentReferencePointCount: 2048
    m_PVRFilteringMode: 1
    m_PVRDenoiserTypeDirect: 1
    m_PVRDenoiserTypeIndirect: 1
    m_PVRDenoiserTypeAO: 1
    m_PVRFilterTypeDirect: 0
    m_PVRFilterTypeIndirect: 0
    m_PVRFilterTypeAO: 0
    m_PVREnvironmentMIS: 1
    m_PVRCulling: 1
    m_PVRFilteringGaussRadiusDirect: 1
    m_PVRFilteringGaussRadiusIndirect: 5
    m_PVRFilteringGaussRadiusAO: 2
    m_PVRFilteringAtrousPositionSigmaDirect: 0.5
    m_PVRFilteringAtrousPositionSigmaIndirect: 2
    m_PVRFilteringAtrousPositionSigmaAO: 1
    m_ExportTrainingData: 0
    m_TrainingDataDestination: TrainingData
    m_LightProbeSampleCountMultiplier: 4
  m_LightingDataAsset: {fileID: 0}
  m_UseShadowmask: 0
--- !u!196 &4
NavMeshSettings:
  serializedVersion: 2
  m_ObjectHideFlags: 0
  m_BuildSettings:
    serializedVersion: 2
    agentTypeID: 0
    agentRadius: 0.5
    agentHeight: 2
    agentSlope: 45
    agentClimb: 0.4
    ledgeDropHeight: 0
    maxJumpAcrossDistance: 0
    minRegionArea: 2
    manualCellSize: 0
    cellSize: 0.16666667
    manualTileSize: 0
    tileSize: 256
    accuratePlacement: 0
    debug:
      m_Flags: 0
  m_NavMeshData: {fileID: 0}
--- !u!1 &696349730
GameObject:
  m_ObjectHideFlags: 0
  m_CorrespondingSourceObject: {fileID: 0}
  m_PrefabInstance: {fileID: 0}
  m_PrefabAsset: {fileID: 0}
  serializedVersion: 6
  m_Component:
  - component: {fileID: 696349733}
  - component: {fileID: 696349732}
  - component: {fileID: 696349731}
  m_Layer: 0
  m_Name: EventSystem
  m_TagString: Untagged
  m_Icon: {fileID: 0}
  m_NavMeshLayer: 0
  m_StaticEditorFlags: 0
  m_IsActive: 1
--- !u!114 &696349731
MonoBehaviour:
  m_ObjectHideFlags: 0
  m_CorrespondingSourceObject: {fileID: 0}
  m_PrefabInstance: {fileID: 0}
  m_PrefabAsset: {fileID: 0}
  m_GameObject: {fileID: 696349730}
  m_Enabled: 1
  m_EditorHideFlags: 0
  m_Script: {fileID: 11500000, guid: 4f231c4fb786f3946a6b90b886c48677, type: 3}
  m_Name: 
  m_EditorClassIdentifier: 
  m_HorizontalAxis: Horizontal
  m_VerticalAxis: Vertical
  m_SubmitButton: Submit
  m_CancelButton: Cancel
  m_InputActionsPerSecond: 10
  m_RepeatDelay: 0.5
  m_ForceModuleActive: 0
--- !u!114 &696349732
MonoBehaviour:
  m_ObjectHideFlags: 0
  m_CorrespondingSourceObject: {fileID: 0}
  m_PrefabInstance: {fileID: 0}
  m_PrefabAsset: {fileID: 0}
  m_GameObject: {fileID: 696349730}
  m_Enabled: 1
  m_EditorHideFlags: 0
  m_Script: {fileID: 11500000, guid: 76c392e42b5098c458856cdf6ecaaaa1, type: 3}
  m_Name: 
  m_EditorClassIdentifier: 
  m_FirstSelected: {fileID: 0}
  m_sendNavigationEvents: 1
  m_DragThreshold: 10
--- !u!4 &696349733
Transform:
  m_ObjectHideFlags: 0
  m_CorrespondingSourceObject: {fileID: 0}
  m_PrefabInstance: {fileID: 0}
  m_PrefabAsset: {fileID: 0}
  m_GameObject: {fileID: 696349730}
  m_LocalRotation: {x: 0, y: 0, z: 0, w: 1}
  m_LocalPosition: {x: 0, y: 0, z: 0}
  m_LocalScale: {x: 1, y: 1, z: 1}
  m_Children: []
  m_Father: {fileID: 0}
  m_RootOrder: 0
  m_LocalEulerAnglesHint: {x: 0, y: 0, z: 0}
--- !u!1 &935107260
GameObject:
  m_ObjectHideFlags: 0
  m_CorrespondingSourceObject: {fileID: 0}
  m_PrefabInstance: {fileID: 0}
  m_PrefabAsset: {fileID: 0}
  serializedVersion: 6
  m_Component:
  - component: {fileID: 935107264}
  - component: {fileID: 935107263}
  - component: {fileID: 935107262}
  - component: {fileID: 935107261}
  m_Layer: 5
  m_Name: Canvas
  m_TagString: Untagged
  m_Icon: {fileID: 0}
  m_NavMeshLayer: 0
  m_StaticEditorFlags: 0
  m_IsActive: 1
--- !u!114 &935107261
MonoBehaviour:
  m_ObjectHideFlags: 0
  m_CorrespondingSourceObject: {fileID: 0}
  m_PrefabInstance: {fileID: 0}
  m_PrefabAsset: {fileID: 0}
  m_GameObject: {fileID: 935107260}
  m_Enabled: 1
  m_EditorHideFlags: 0
  m_Script: {fileID: 11500000, guid: dc42784cf147c0c48a680349fa168899, type: 3}
  m_Name: 
  m_EditorClassIdentifier: 
  m_IgnoreReversedGraphics: 1
  m_BlockingObjects: 0
  m_BlockingMask:
    serializedVersion: 2
    m_Bits: 4294967295
--- !u!114 &935107262
MonoBehaviour:
  m_ObjectHideFlags: 0
  m_CorrespondingSourceObject: {fileID: 0}
  m_PrefabInstance: {fileID: 0}
  m_PrefabAsset: {fileID: 0}
  m_GameObject: {fileID: 935107260}
  m_Enabled: 1
  m_EditorHideFlags: 0
  m_Script: {fileID: 11500000, guid: 0cd44c1031e13a943bb63640046fad76, type: 3}
  m_Name: 
  m_EditorClassIdentifier: 
  m_UiScaleMode: 0
  m_ReferencePixelsPerUnit: 100
  m_ScaleFactor: 1
  m_ReferenceResolution: {x: 800, y: 600}
  m_ScreenMatchMode: 0
  m_MatchWidthOrHeight: 0
  m_PhysicalUnit: 3
  m_FallbackScreenDPI: 96
  m_DefaultSpriteDPI: 96
  m_DynamicPixelsPerUnit: 1
--- !u!223 &935107263
Canvas:
  m_ObjectHideFlags: 0
  m_CorrespondingSourceObject: {fileID: 0}
  m_PrefabInstance: {fileID: 0}
  m_PrefabAsset: {fileID: 0}
  m_GameObject: {fileID: 935107260}
  m_Enabled: 1
  serializedVersion: 3
  m_RenderMode: 0
  m_Camera: {fileID: 0}
  m_PlaneDistance: 100
  m_PixelPerfect: 0
  m_ReceivesEvents: 1
  m_OverrideSorting: 0
  m_OverridePixelPerfect: 0
  m_SortingBucketNormalizedSize: 0
  m_AdditionalShaderChannelsFlag: 0
  m_SortingLayerID: 0
  m_SortingOrder: 0
  m_TargetDisplay: 0
--- !u!224 &935107264
RectTransform:
  m_ObjectHideFlags: 0
  m_CorrespondingSourceObject: {fileID: 0}
  m_PrefabInstance: {fileID: 0}
  m_PrefabAsset: {fileID: 0}
  m_GameObject: {fileID: 935107260}
  m_LocalRotation: {x: 0, y: 0, z: 0, w: 1}
  m_LocalPosition: {x: 0, y: 0, z: 0}
  m_LocalScale: {x: 0, y: 0, z: 0}
  m_Children:
  - {fileID: 1474161113}
  m_Father: {fileID: 0}
  m_RootOrder: 1
  m_LocalEulerAnglesHint: {x: 0, y: 0, z: 0}
  m_AnchorMin: {x: 0, y: 0}
  m_AnchorMax: {x: 0, y: 0}
  m_AnchoredPosition: {x: 0, y: 0}
  m_SizeDelta: {x: 0, y: 0}
  m_Pivot: {x: 0, y: 0}
--- !u!1 &1089916265 stripped
GameObject:
  m_CorrespondingSourceObject: {fileID: 8882336659222203461, guid: 56183de9b5650bf46bfd093470d08b06,
    type: 3}
  m_PrefabInstance: {fileID: 1474161112}
  m_PrefabAsset: {fileID: 0}
--- !u!114 &1089916267
MonoBehaviour:
  m_ObjectHideFlags: 0
  m_CorrespondingSourceObject: {fileID: 0}
  m_PrefabInstance: {fileID: 0}
  m_PrefabAsset: {fileID: 0}
  m_GameObject: {fileID: 1089916265}
  m_Enabled: 1
  m_EditorHideFlags: 0
  m_Script: {fileID: 11500000, guid: 4b8b99d8a12e39e4b94d2d7162c7c978, type: 3}
  m_Name: 
  m_EditorClassIdentifier: 
  diags:
  - CommentModifier
  - CrazyCap
  - D1_Cth1
  - D1_Cth2
  - D1_Cth3
  - D1_Cth5
  - D1_Cth6
  - D1_Gug1
  - D1_Gug2
  - D1_Gug3
  - D1_Gug5
  - D1_Gug6
  - D1_Gug8
  - D1_Main1
  - D1_Main2
  - D1_Main4
  - D1_Main5
  - D1_Main7
  - D1_Main8
  - DEMO_Condition
  - demo_Narration
  - Example3Dialogue
  - Item_LookUp
  - Laura
  - MrCube
  - NPCOnly
  - QuestChartDemo
  - tezd
  - TriggeredDude
  - Witch
  assignedIndex: 18
  assignedID: 18255
  assignedDialogue: D1_Main8
  interactionCount: 0
  alias: 
  overrideStartNode: 0
  defaultNPCSprite: {fileID: 21300000, guid: cd3a2386ffd1ea342849c57fa7f417a3, type: 3}
  defaultPlayerSprite: {fileID: 21300000, guid: 45eb9e6049367714c9ed37e638607825,
    type: 3}
  targetManager: {fileID: 0}
  preload: 1
  notuptodate: 0
  startp: 0
  loadtag: 
  langs:
  - enabled: 1
    selected: 0
    name: Russian
    flag: {fileID: 0}
  - enabled: 0
    selected: 0
    name: English
    flag: {fileID: 0}
  S_playerDiags:
  - commentCount: 1
    s_comment:
    - text: The lighthouse is very close! We need to think about how not to get caught.
        What do you advise?
      extraData: ExtraData
      inputSetIndex: 0
      outputNodeIndex: 1
      outActionIndex: -1
      sprites: {fileID: 0}
      audios: {fileID: 0}
      visible: 1
    ID: 0
    pTag: '#player'
    sprite: {fileID: 0}
    vars: []
    varKeys: []
    isPlayer: 1
  - commentCount: 1
    s_comment:
    - text: Go along the shore. So shorter. And the lighthouse is better.
      extraData: ExtraData
      inputSetIndex: 1
      outputNodeIndex: 2
      outActionIndex: -1
      sprites: {fileID: 0}
      audios: {fileID: 0}
      visible: 1
    ID: 1
    pTag: '#narrator'
    sprite: {fileID: 0}
    vars: []
    varKeys: []
    isPlayer: 0
  - commentCount: 1
    s_comment:
    - text: Sure? I see Ktulhu from here!
      extraData: ExtraData
      inputSetIndex: 2
      outputNodeIndex: 3
      outActionIndex: -1
      sprites: {fileID: 0}
      audios: {fileID: 0}
      visible: 1
    ID: 2
    pTag: '#player'
    sprite: {fileID: 0}
    vars: []
    varKeys: []
    isPlayer: 1
  - commentCount: 1
    s_comment:
    - text: Actually not. Come on to the caves. It is safer there.
      extraData: ExtraData
      inputSetIndex: 3
      outputNodeIndex: 4
      outActionIndex: -1
      sprites: {fileID: 0}
      audios: {fileID: 0}
      visible: 1
    ID: 3
    pTag: '#narrator'
    sprite: {fileID: 0}
    vars: []
    varKeys: []
    isPlayer: 0
  - commentCount: 1
    s_comment:
    - text: Are you kidding me?
      extraData: ExtraData
      inputSetIndex: 4
      outputNodeIndex: 5
      outActionIndex: -1
      sprites: {fileID: 0}
      audios: {fileID: 0}
      visible: 1
    ID: 4
    pTag: '#player'
    sprite: {fileID: 0}
    vars: []
    varKeys: []
    isPlayer: 1
  - commentCount: 1
    s_comment:
    - text: You ask!
      extraData: ExtraData
      inputSetIndex: 5
      outputNodeIndex: 6
      outActionIndex: -1
      sprites: {fileID: 0}
      audios: {fileID: 0}
      visible: 1
    ID: 5
    pTag: '#narrator'
    sprite: {fileID: 0}
    vars: []
    varKeys: []
    isPlayer: 0
  - commentCount: 1
    s_comment:
    - text: And the truth is that it is me ...
      extraData: ExtraData
      inputSetIndex: 6
      outputNodeIndex: 7
      outActionIndex: -1
      sprites: {fileID: 0}
      audios: {fileID: 0}
      visible: 1
    ID: 6
    pTag: '#player'
    sprite: {fileID: 0}
    vars: []
    varKeys: []
    isPlayer: 1
  - commentCount: 2
    s_comment:
    - text: Let's go along the shore. So many times slipped away - maybe now he is
        lucky.
      extraData: KT_01_r_09
      inputSetIndex: 7
      outputNodeIndex: -1
      outActionIndex: -1
      sprites: {fileID: 0}
      audios: {fileID: 0}
      visible: 1
    - text: Then they climbed into that tunnel. So far, he looks too narrow for Gug.
      extraData: GU_01_r_09
      inputSetIndex: 7
      outputNodeIndex: -1
      outActionIndex: -1
      sprites: {fileID: 0}
      audios: {fileID: 0}
      visible: 1
    ID: 7
    pTag: '#player'
    sprite: {fileID: 0}
    vars: []
    varKeys: []
    isPlayer: 1
  S_actionNodes: []
--- !u!1001 &1474161112
PrefabInstance:
  m_ObjectHideFlags: 0
  serializedVersion: 2
  m_Modification:
    m_TransformParent: {fileID: 935107264}
    m_Modifications:
    - target: {fileID: 358321790233032479, guid: 56183de9b5650bf46bfd093470d08b06,
        type: 3}
      propertyPath: m_AnchorMax.y
      value: 0
      objectReference: {fileID: 0}
    - target: {fileID: 358321790233032479, guid: 56183de9b5650bf46bfd093470d08b06,
        type: 3}
      propertyPath: m_AnchorMin.y
      value: 0
      objectReference: {fileID: 0}
    - target: {fileID: 358321790233032479, guid: 56183de9b5650bf46bfd093470d08b06,
        type: 3}
      propertyPath: m_AnchoredPosition.x
      value: 0
      objectReference: {fileID: 0}
    - target: {fileID: 358321790233032479, guid: 56183de9b5650bf46bfd093470d08b06,
        type: 3}
      propertyPath: m_AnchoredPosition.y
      value: 0
      objectReference: {fileID: 0}
    - target: {fileID: 8882336659222203460, guid: 56183de9b5650bf46bfd093470d08b06,
        type: 3}
      propertyPath: m_Pivot.x
      value: 0.5
      objectReference: {fileID: 0}
    - target: {fileID: 8882336659222203460, guid: 56183de9b5650bf46bfd093470d08b06,
        type: 3}
      propertyPath: m_Pivot.y
      value: 0.5
      objectReference: {fileID: 0}
    - target: {fileID: 8882336659222203460, guid: 56183de9b5650bf46bfd093470d08b06,
        type: 3}
      propertyPath: m_RootOrder
      value: 0
      objectReference: {fileID: 0}
    - target: {fileID: 8882336659222203460, guid: 56183de9b5650bf46bfd093470d08b06,
        type: 3}
      propertyPath: m_AnchorMax.x
      value: 1
      objectReference: {fileID: 0}
    - target: {fileID: 8882336659222203460, guid: 56183de9b5650bf46bfd093470d08b06,
        type: 3}
      propertyPath: m_AnchorMax.y
      value: 1
      objectReference: {fileID: 0}
    - target: {fileID: 8882336659222203460, guid: 56183de9b5650bf46bfd093470d08b06,
        type: 3}
      propertyPath: m_AnchorMin.x
      value: 0
      objectReference: {fileID: 0}
    - target: {fileID: 8882336659222203460, guid: 56183de9b5650bf46bfd093470d08b06,
        type: 3}
      propertyPath: m_AnchorMin.y
      value: 0
      objectReference: {fileID: 0}
    - target: {fileID: 8882336659222203460, guid: 56183de9b5650bf46bfd093470d08b06,
        type: 3}
      propertyPath: m_SizeDelta.x
      value: 0
      objectReference: {fileID: 0}
    - target: {fileID: 8882336659222203460, guid: 56183de9b5650bf46bfd093470d08b06,
        type: 3}
      propertyPath: m_SizeDelta.y
      value: -0.0043945312
      objectReference: {fileID: 0}
    - target: {fileID: 8882336659222203460, guid: 56183de9b5650bf46bfd093470d08b06,
        type: 3}
      propertyPath: m_LocalPosition.x
      value: 0
      objectReference: {fileID: 0}
    - target: {fileID: 8882336659222203460, guid: 56183de9b5650bf46bfd093470d08b06,
        type: 3}
      propertyPath: m_LocalPosition.y
      value: 0
      objectReference: {fileID: 0}
    - target: {fileID: 8882336659222203460, guid: 56183de9b5650bf46bfd093470d08b06,
        type: 3}
      propertyPath: m_LocalPosition.z
      value: 0
      objectReference: {fileID: 0}
    - target: {fileID: 8882336659222203460, guid: 56183de9b5650bf46bfd093470d08b06,
        type: 3}
      propertyPath: m_LocalRotation.w
      value: 1
      objectReference: {fileID: 0}
    - target: {fileID: 8882336659222203460, guid: 56183de9b5650bf46bfd093470d08b06,
        type: 3}
      propertyPath: m_LocalRotation.x
      value: 0
      objectReference: {fileID: 0}
    - target: {fileID: 8882336659222203460, guid: 56183de9b5650bf46bfd093470d08b06,
        type: 3}
      propertyPath: m_LocalRotation.y
      value: 0
      objectReference: {fileID: 0}
    - target: {fileID: 8882336659222203460, guid: 56183de9b5650bf46bfd093470d08b06,
        type: 3}
      propertyPath: m_LocalRotation.z
      value: 0
      objectReference: {fileID: 0}
    - target: {fileID: 8882336659222203460, guid: 56183de9b5650bf46bfd093470d08b06,
        type: 3}
      propertyPath: m_AnchoredPosition.x
      value: 0
      objectReference: {fileID: 0}
    - target: {fileID: 8882336659222203460, guid: 56183de9b5650bf46bfd093470d08b06,
        type: 3}
      propertyPath: m_AnchoredPosition.y
      value: -0.001953125
      objectReference: {fileID: 0}
    - target: {fileID: 8882336659222203460, guid: 56183de9b5650bf46bfd093470d08b06,
        type: 3}
      propertyPath: m_LocalEulerAnglesHint.x
      value: 0
      objectReference: {fileID: 0}
    - target: {fileID: 8882336659222203460, guid: 56183de9b5650bf46bfd093470d08b06,
        type: 3}
      propertyPath: m_LocalEulerAnglesHint.y
      value: 0
      objectReference: {fileID: 0}
    - target: {fileID: 8882336659222203460, guid: 56183de9b5650bf46bfd093470d08b06,
        type: 3}
      propertyPath: m_LocalEulerAnglesHint.z
      value: 0
      objectReference: {fileID: 0}
    - target: {fileID: 8882336659222203461, guid: 56183de9b5650bf46bfd093470d08b06,
        type: 3}
      propertyPath: m_Name
      value: DialoguesScreen
      objectReference: {fileID: 0}
    - target: {fileID: 8882336659593093145, guid: 56183de9b5650bf46bfd093470d08b06,
        type: 3}
      propertyPath: m_AnchorMax.x
      value: 0
      objectReference: {fileID: 0}
    - target: {fileID: 8882336659593093145, guid: 56183de9b5650bf46bfd093470d08b06,
        type: 3}
      propertyPath: m_AnchorMax.y
      value: 0
      objectReference: {fileID: 0}
    - target: {fileID: 8882336659877729801, guid: 56183de9b5650bf46bfd093470d08b06,
        type: 3}
      propertyPath: m_AnchorMax.y
      value: 0
      objectReference: {fileID: 0}
    - target: {fileID: 8882336659877729801, guid: 56183de9b5650bf46bfd093470d08b06,
        type: 3}
      propertyPath: m_AnchorMin.y
      value: 0
      objectReference: {fileID: 0}
    - target: {fileID: 8882336659877729801, guid: 56183de9b5650bf46bfd093470d08b06,
        type: 3}
      propertyPath: m_SizeDelta.y
      value: 0
      objectReference: {fileID: 0}
    - target: {fileID: 8882336659877729801, guid: 56183de9b5650bf46bfd093470d08b06,
        type: 3}
      propertyPath: m_AnchoredPosition.x
      value: 0
      objectReference: {fileID: 0}
    - target: {fileID: 8882336659877729801, guid: 56183de9b5650bf46bfd093470d08b06,
        type: 3}
      propertyPath: m_AnchoredPosition.y
      value: 0
      objectReference: {fileID: 0}
    - target: {fileID: 8882336660564508913, guid: 56183de9b5650bf46bfd093470d08b06,
        type: 3}
      propertyPath: m_SizeDelta.y
      value: 0
      objectReference: {fileID: 0}
    - target: {fileID: 8882336661293049698, guid: 56183de9b5650bf46bfd093470d08b06,
        type: 3}
      propertyPath: m_AnchorMax.x
      value: 0
      objectReference: {fileID: 0}
    - target: {fileID: 8882336661293049698, guid: 56183de9b5650bf46bfd093470d08b06,
        type: 3}
      propertyPath: m_AnchorMax.y
      value: 0
      objectReference: {fileID: 0}
    - target: {fileID: 8882336661293049698, guid: 56183de9b5650bf46bfd093470d08b06,
        type: 3}
      propertyPath: m_SizeDelta.x
      value: 0
      objectReference: {fileID: 0}
    m_RemovedComponents: []
  m_SourcePrefab: {fileID: 100100000, guid: 56183de9b5650bf46bfd093470d08b06, type: 3}
--- !u!224 &1474161113 stripped
RectTransform:
  m_CorrespondingSourceObject: {fileID: 8882336659222203460, guid: 56183de9b5650bf46bfd093470d08b06,
    type: 3}
  m_PrefabInstance: {fileID: 1474161112}
  m_PrefabAsset: {fileID: 0}
