%YAML 1.1
%TAG !u! tag:unity3d.com,2011:
--- !u!29 &1
OcclusionCullingSettings:
  m_ObjectHideFlags: 0
  serializedVersion: 2
  m_OcclusionBakeSettings:
    smallestOccluder: 5
    smallestHole: 0.25
    backfaceThreshold: 100
  m_SceneGUID: 00000000000000000000000000000000
  m_OcclusionCullingData: {fileID: 0}
--- !u!104 &2
RenderSettings:
  m_ObjectHideFlags: 0
  serializedVersion: 9
  m_Fog: 0
  m_FogColor: {r: 0.5, g: 0.5, b: 0.5, a: 1}
  m_FogMode: 3
  m_FogDensity: 0.01
  m_LinearFogStart: 0
  m_LinearFogEnd: 300
  m_AmbientSkyColor: {r: 0.212, g: 0.227, b: 0.259, a: 1}
  m_AmbientEquatorColor: {r: 0.114, g: 0.125, b: 0.133, a: 1}
  m_AmbientGroundColor: {r: 0.047, g: 0.043, b: 0.035, a: 1}
  m_AmbientIntensity: 1
  m_AmbientMode: 3
  m_SubtractiveShadowColor: {r: 0.42, g: 0.478, b: 0.627, a: 1}
  m_SkyboxMaterial: {fileID: 0}
  m_HaloStrength: 0.5
  m_FlareStrength: 1
  m_FlareFadeSpeed: 3
  m_HaloTexture: {fileID: 0}
  m_SpotCookie: {fileID: 10001, guid: 0000000000000000e000000000000000, type: 0}
  m_DefaultReflectionMode: 0
  m_DefaultReflectionResolution: 128
  m_ReflectionBounces: 1
  m_ReflectionIntensity: 1
  m_CustomReflection: {fileID: 0}
  m_Sun: {fileID: 0}
  m_IndirectSpecularColor: {r: 0, g: 0, b: 0, a: 1}
  m_UseRadianceAmbientProbe: 0
--- !u!157 &3
LightmapSettings:
  m_ObjectHideFlags: 0
  serializedVersion: 11
  m_GIWorkflowMode: 1
  m_GISettings:
    serializedVersion: 2
    m_BounceScale: 1
    m_IndirectOutputScale: 1
    m_AlbedoBoost: 1
    m_EnvironmentLightingMode: 0
    m_EnableBakedLightmaps: 0
    m_EnableRealtimeLightmaps: 0
  m_LightmapEditorSettings:
    serializedVersion: 12
    m_Resolution: 2
    m_BakeResolution: 40
    m_AtlasSize: 1024
    m_AO: 0
    m_AOMaxDistance: 1
    m_CompAOExponent: 1
    m_CompAOExponentDirect: 0
    m_ExtractAmbientOcclusion: 0
    m_Padding: 2
    m_LightmapParameters: {fileID: 0}
    m_LightmapsBakeMode: 1
    m_TextureCompression: 1
    m_FinalGather: 0
    m_FinalGatherFiltering: 1
    m_FinalGatherRayCount: 256
    m_ReflectionCompression: 2
    m_MixedBakeMode: 2
    m_BakeBackend: 0
    m_PVRSampling: 1
    m_PVRDirectSampleCount: 32
    m_PVRSampleCount: 500
    m_PVRBounces: 2
    m_PVREnvironmentSampleCount: 500
    m_PVREnvironmentReferencePointCount: 2048
    m_PVRFilteringMode: 2
    m_PVRDenoiserTypeDirect: 0
    m_PVRDenoiserTypeIndirect: 0
    m_PVRDenoiserTypeAO: 0
    m_PVRFilterTypeDirect: 0
    m_PVRFilterTypeIndirect: 0
    m_PVRFilterTypeAO: 0
    m_PVREnvironmentMIS: 0
    m_PVRCulling: 1
    m_PVRFilteringGaussRadiusDirect: 1
    m_PVRFilteringGaussRadiusIndirect: 5
    m_PVRFilteringGaussRadiusAO: 2
    m_PVRFilteringAtrousPositionSigmaDirect: 0.5
    m_PVRFilteringAtrousPositionSigmaIndirect: 2
    m_PVRFilteringAtrousPositionSigmaAO: 1
    m_ExportTrainingData: 0
    m_TrainingDataDestination: TrainingData
    m_LightProbeSampleCountMultiplier: 4
  m_LightingDataAsset: {fileID: 0}
  m_UseShadowmask: 0
--- !u!196 &4
NavMeshSettings:
  serializedVersion: 2
  m_ObjectHideFlags: 0
  m_BuildSettings:
    serializedVersion: 2
    agentTypeID: 0
    agentRadius: 0.5
    agentHeight: 2
    agentSlope: 45
    agentClimb: 0.4
    ledgeDropHeight: 0
    maxJumpAcrossDistance: 0
    minRegionArea: 2
    manualCellSize: 0
    cellSize: 0.16666667
    manualTileSize: 0
    tileSize: 256
    accuratePlacement: 0
    debug:
      m_Flags: 0
  m_NavMeshData: {fileID: 0}
--- !u!1001 &46897625
PrefabInstance:
  m_ObjectHideFlags: 0
  serializedVersion: 2
  m_Modification:
    m_TransformParent: {fileID: 2074436588}
    m_Modifications:
    - target: {fileID: 6167609252032025415, guid: 106da792aa68e9042a8605fcd4c9c043,
        type: 3}
      propertyPath: m_LocalPosition.x
      value: 0.59
      objectReference: {fileID: 0}
    - target: {fileID: 6167609252067574308, guid: 106da792aa68e9042a8605fcd4c9c043,
        type: 3}
      propertyPath: m_RootOrder
      value: 3
      objectReference: {fileID: 0}
    - target: {fileID: 6167609252067574308, guid: 106da792aa68e9042a8605fcd4c9c043,
        type: 3}
      propertyPath: m_LocalPosition.x
      value: 98.73244
      objectReference: {fileID: 0}
    - target: {fileID: 6167609252067574308, guid: 106da792aa68e9042a8605fcd4c9c043,
        type: 3}
      propertyPath: m_LocalPosition.y
      value: -1.317526
      objectReference: {fileID: 0}
    - target: {fileID: 6167609252067574308, guid: 106da792aa68e9042a8605fcd4c9c043,
        type: 3}
      propertyPath: m_LocalPosition.z
      value: 0
      objectReference: {fileID: 0}
    - target: {fileID: 6167609252067574308, guid: 106da792aa68e9042a8605fcd4c9c043,
        type: 3}
      propertyPath: m_LocalRotation.w
      value: 1
      objectReference: {fileID: 0}
    - target: {fileID: 6167609252067574308, guid: 106da792aa68e9042a8605fcd4c9c043,
        type: 3}
      propertyPath: m_LocalRotation.x
      value: -0
      objectReference: {fileID: 0}
    - target: {fileID: 6167609252067574308, guid: 106da792aa68e9042a8605fcd4c9c043,
        type: 3}
      propertyPath: m_LocalRotation.y
      value: -0
      objectReference: {fileID: 0}
    - target: {fileID: 6167609252067574308, guid: 106da792aa68e9042a8605fcd4c9c043,
        type: 3}
      propertyPath: m_LocalRotation.z
      value: -0
      objectReference: {fileID: 0}
    - target: {fileID: 6167609252067574308, guid: 106da792aa68e9042a8605fcd4c9c043,
        type: 3}
      propertyPath: m_LocalEulerAnglesHint.x
      value: 0
      objectReference: {fileID: 0}
    - target: {fileID: 6167609252067574308, guid: 106da792aa68e9042a8605fcd4c9c043,
        type: 3}
      propertyPath: m_LocalEulerAnglesHint.y
      value: 0
      objectReference: {fileID: 0}
    - target: {fileID: 6167609252067574308, guid: 106da792aa68e9042a8605fcd4c9c043,
        type: 3}
      propertyPath: m_LocalEulerAnglesHint.z
      value: 0
      objectReference: {fileID: 0}
    - target: {fileID: 6167609252067574309, guid: 106da792aa68e9042a8605fcd4c9c043,
        type: 3}
      propertyPath: m_Name
      value: Finish (1)
      objectReference: {fileID: 0}
    m_RemovedComponents: []
  m_SourcePrefab: {fileID: 100100000, guid: 106da792aa68e9042a8605fcd4c9c043, type: 3}
--- !u!1001 &128940327
PrefabInstance:
  m_ObjectHideFlags: 0
  serializedVersion: 2
  m_Modification:
    m_TransformParent: {fileID: 1823963131}
    m_Modifications:
    - target: {fileID: 5527342228665820993, guid: 40fe050dd59326a4abf6f3c076f08670,
        type: 3}
      propertyPath: m_RootOrder
      value: 0
      objectReference: {fileID: 0}
    - target: {fileID: 5527342228665820993, guid: 40fe050dd59326a4abf6f3c076f08670,
        type: 3}
      propertyPath: m_LocalPosition.x
      value: 86.38401
      objectReference: {fileID: 0}
    - target: {fileID: 5527342228665820993, guid: 40fe050dd59326a4abf6f3c076f08670,
        type: 3}
      propertyPath: m_LocalPosition.y
      value: -1.7645102
      objectReference: {fileID: 0}
    - target: {fileID: 5527342228665820993, guid: 40fe050dd59326a4abf6f3c076f08670,
        type: 3}
      propertyPath: m_LocalPosition.z
      value: 0
      objectReference: {fileID: 0}
    - target: {fileID: 5527342228665820993, guid: 40fe050dd59326a4abf6f3c076f08670,
        type: 3}
      propertyPath: m_LocalRotation.w
      value: 1
      objectReference: {fileID: 0}
    - target: {fileID: 5527342228665820993, guid: 40fe050dd59326a4abf6f3c076f08670,
        type: 3}
      propertyPath: m_LocalRotation.x
      value: -0
      objectReference: {fileID: 0}
    - target: {fileID: 5527342228665820993, guid: 40fe050dd59326a4abf6f3c076f08670,
        type: 3}
      propertyPath: m_LocalRotation.y
      value: -0
      objectReference: {fileID: 0}
    - target: {fileID: 5527342228665820993, guid: 40fe050dd59326a4abf6f3c076f08670,
        type: 3}
      propertyPath: m_LocalRotation.z
      value: -0
      objectReference: {fileID: 0}
    - target: {fileID: 5527342228665820993, guid: 40fe050dd59326a4abf6f3c076f08670,
        type: 3}
      propertyPath: m_LocalEulerAnglesHint.x
      value: 0
      objectReference: {fileID: 0}
    - target: {fileID: 5527342228665820993, guid: 40fe050dd59326a4abf6f3c076f08670,
        type: 3}
      propertyPath: m_LocalEulerAnglesHint.y
      value: 0
      objectReference: {fileID: 0}
    - target: {fileID: 5527342228665820993, guid: 40fe050dd59326a4abf6f3c076f08670,
        type: 3}
      propertyPath: m_LocalEulerAnglesHint.z
      value: 0
      objectReference: {fileID: 0}
    - target: {fileID: 7442893935984207594, guid: 40fe050dd59326a4abf6f3c076f08670,
        type: 3}
      propertyPath: m_Name
      value: Covering
      objectReference: {fileID: 0}
    m_RemovedComponents: []
  m_SourcePrefab: {fileID: 100100000, guid: 40fe050dd59326a4abf6f3c076f08670, type: 3}
--- !u!1001 &157327532
PrefabInstance:
  m_ObjectHideFlags: 0
  serializedVersion: 2
  m_Modification:
    m_TransformParent: {fileID: 0}
    m_Modifications:
    - target: {fileID: 267497435239374267, guid: caac7e885ab7a55449cc1e35e5267e52,
        type: 3}
      propertyPath: _dialogueToLoadOnFinish
      value: D1_Cth3
      objectReference: {fileID: 0}
    - target: {fileID: 2552103665894733489, guid: caac7e885ab7a55449cc1e35e5267e52,
        type: 3}
      propertyPath: m_Mesh
      value: 
      objectReference: {fileID: 0}
    - target: {fileID: 5219297078867124021, guid: caac7e885ab7a55449cc1e35e5267e52,
        type: 3}
      propertyPath: m_LocalPosition.z
      value: 0
      objectReference: {fileID: 0}
    - target: {fileID: 5366656165651138279, guid: caac7e885ab7a55449cc1e35e5267e52,
        type: 3}
      propertyPath: m_RootOrder
      value: 2
      objectReference: {fileID: 0}
    - target: {fileID: 5366656165651138279, guid: caac7e885ab7a55449cc1e35e5267e52,
        type: 3}
      propertyPath: m_LocalPosition.x
      value: 0
      objectReference: {fileID: 0}
    - target: {fileID: 5366656165651138279, guid: caac7e885ab7a55449cc1e35e5267e52,
        type: 3}
      propertyPath: m_LocalPosition.y
      value: 0
      objectReference: {fileID: 0}
    - target: {fileID: 5366656165651138279, guid: caac7e885ab7a55449cc1e35e5267e52,
        type: 3}
      propertyPath: m_LocalPosition.z
      value: -10
      objectReference: {fileID: 0}
    - target: {fileID: 5366656165651138279, guid: caac7e885ab7a55449cc1e35e5267e52,
        type: 3}
      propertyPath: m_LocalRotation.w
      value: 1
      objectReference: {fileID: 0}
    - target: {fileID: 5366656165651138279, guid: caac7e885ab7a55449cc1e35e5267e52,
        type: 3}
      propertyPath: m_LocalRotation.x
      value: 0
      objectReference: {fileID: 0}
    - target: {fileID: 5366656165651138279, guid: caac7e885ab7a55449cc1e35e5267e52,
        type: 3}
      propertyPath: m_LocalRotation.y
      value: 0
      objectReference: {fileID: 0}
    - target: {fileID: 5366656165651138279, guid: caac7e885ab7a55449cc1e35e5267e52,
        type: 3}
      propertyPath: m_LocalRotation.z
      value: 0
      objectReference: {fileID: 0}
    - target: {fileID: 5366656165651138279, guid: caac7e885ab7a55449cc1e35e5267e52,
        type: 3}
      propertyPath: m_LocalEulerAnglesHint.x
      value: 0
      objectReference: {fileID: 0}
    - target: {fileID: 5366656165651138279, guid: caac7e885ab7a55449cc1e35e5267e52,
        type: 3}
      propertyPath: m_LocalEulerAnglesHint.y
      value: 0
      objectReference: {fileID: 0}
    - target: {fileID: 5366656165651138279, guid: caac7e885ab7a55449cc1e35e5267e52,
        type: 3}
      propertyPath: m_LocalEulerAnglesHint.z
      value: 0
      objectReference: {fileID: 0}
    - target: {fileID: 8907701713302794665, guid: caac7e885ab7a55449cc1e35e5267e52,
        type: 3}
      propertyPath: m_Name
      value: KtulhuScene Variant
      objectReference: {fileID: 0}
    m_RemovedComponents: []
  m_SourcePrefab: {fileID: 100100000, guid: caac7e885ab7a55449cc1e35e5267e52, type: 3}
--- !u!1001 &802689885
PrefabInstance:
  m_ObjectHideFlags: 0
  serializedVersion: 2
  m_Modification:
    m_TransformParent: {fileID: 1823963131}
    m_Modifications:
    - target: {fileID: 3035971654861099221, guid: 0b69e663c257d1542b5d3f70031a56db,
        type: 3}
      propertyPath: m_RootOrder
      value: 3
      objectReference: {fileID: 0}
    - target: {fileID: 3035971654861099221, guid: 0b69e663c257d1542b5d3f70031a56db,
        type: 3}
      propertyPath: m_LocalPosition.x
      value: 30.17752
      objectReference: {fileID: 0}
    - target: {fileID: 3035971654861099221, guid: 0b69e663c257d1542b5d3f70031a56db,
        type: 3}
      propertyPath: m_LocalPosition.y
      value: -0.98
      objectReference: {fileID: 0}
    - target: {fileID: 3035971654861099221, guid: 0b69e663c257d1542b5d3f70031a56db,
        type: 3}
      propertyPath: m_LocalPosition.z
      value: 0
      objectReference: {fileID: 0}
    - target: {fileID: 3035971654861099221, guid: 0b69e663c257d1542b5d3f70031a56db,
        type: 3}
      propertyPath: m_LocalRotation.w
      value: 1
      objectReference: {fileID: 0}
    - target: {fileID: 3035971654861099221, guid: 0b69e663c257d1542b5d3f70031a56db,
        type: 3}
      propertyPath: m_LocalRotation.x
      value: -0
      objectReference: {fileID: 0}
    - target: {fileID: 3035971654861099221, guid: 0b69e663c257d1542b5d3f70031a56db,
        type: 3}
      propertyPath: m_LocalRotation.y
      value: -0
      objectReference: {fileID: 0}
    - target: {fileID: 3035971654861099221, guid: 0b69e663c257d1542b5d3f70031a56db,
        type: 3}
      propertyPath: m_LocalRotation.z
      value: -0
      objectReference: {fileID: 0}
    - target: {fileID: 3035971654861099221, guid: 0b69e663c257d1542b5d3f70031a56db,
        type: 3}
      propertyPath: m_LocalEulerAnglesHint.x
      value: 0
      objectReference: {fileID: 0}
    - target: {fileID: 3035971654861099221, guid: 0b69e663c257d1542b5d3f70031a56db,
        type: 3}
      propertyPath: m_LocalEulerAnglesHint.y
      value: 0
      objectReference: {fileID: 0}
    - target: {fileID: 3035971654861099221, guid: 0b69e663c257d1542b5d3f70031a56db,
        type: 3}
      propertyPath: m_LocalEulerAnglesHint.z
      value: 0
      objectReference: {fileID: 0}
    - target: {fileID: 4046524071250260435, guid: 0b69e663c257d1542b5d3f70031a56db,
        type: 3}
      propertyPath: m_Name
      value: Covering3 (1)
      objectReference: {fileID: 0}
    m_RemovedComponents: []
  m_SourcePrefab: {fileID: 100100000, guid: 0b69e663c257d1542b5d3f70031a56db, type: 3}
--- !u!1 &832359344
GameObject:
  m_ObjectHideFlags: 0
  m_CorrespondingSourceObject: {fileID: 0}
  m_PrefabInstance: {fileID: 0}
  m_PrefabAsset: {fileID: 0}
  serializedVersion: 6
  m_Component:
  - component: {fileID: 832359345}
  m_Layer: 0
  m_Name: HidingSpots
  m_TagString: Untagged
  m_Icon: {fileID: 0}
  m_NavMeshLayer: 0
  m_StaticEditorFlags: 0
  m_IsActive: 1
--- !u!4 &832359345
Transform:
  m_ObjectHideFlags: 0
  m_CorrespondingSourceObject: {fileID: 0}
  m_PrefabInstance: {fileID: 0}
  m_PrefabAsset: {fileID: 0}
  m_GameObject: {fileID: 832359344}
  m_LocalRotation: {x: -0, y: -0, z: -0, w: 1}
  m_LocalPosition: {x: 0, y: 0, z: 0}
  m_LocalScale: {x: 1, y: 1, z: 1}
  m_Children:
  - {fileID: 856856196}
  - {fileID: 1914758001}
  - {fileID: 1034074795}
  - {fileID: 1300908042}
  m_Father: {fileID: 2074436587}
  m_RootOrder: 6
  m_LocalEulerAnglesHint: {x: 0, y: 0, z: 0}
--- !u!1001 &856856195
PrefabInstance:
  m_ObjectHideFlags: 0
  serializedVersion: 2
  m_Modification:
    m_TransformParent: {fileID: 832359345}
    m_Modifications:
    - target: {fileID: 5527342228665820993, guid: 40fe050dd59326a4abf6f3c076f08670,
        type: 3}
      propertyPath: m_RootOrder
      value: 0
      objectReference: {fileID: 0}
    - target: {fileID: 5527342228665820993, guid: 40fe050dd59326a4abf6f3c076f08670,
        type: 3}
      propertyPath: m_LocalPosition.x
      value: 86.38401
      objectReference: {fileID: 0}
    - target: {fileID: 5527342228665820993, guid: 40fe050dd59326a4abf6f3c076f08670,
        type: 3}
      propertyPath: m_LocalPosition.y
      value: -1.565508
      objectReference: {fileID: 0}
    - target: {fileID: 5527342228665820993, guid: 40fe050dd59326a4abf6f3c076f08670,
        type: 3}
      propertyPath: m_LocalPosition.z
      value: 0
      objectReference: {fileID: 0}
    - target: {fileID: 5527342228665820993, guid: 40fe050dd59326a4abf6f3c076f08670,
        type: 3}
      propertyPath: m_LocalRotation.w
      value: 1
      objectReference: {fileID: 0}
    - target: {fileID: 5527342228665820993, guid: 40fe050dd59326a4abf6f3c076f08670,
        type: 3}
      propertyPath: m_LocalRotation.x
      value: -0
      objectReference: {fileID: 0}
    - target: {fileID: 5527342228665820993, guid: 40fe050dd59326a4abf6f3c076f08670,
        type: 3}
      propertyPath: m_LocalRotation.y
      value: -0
      objectReference: {fileID: 0}
    - target: {fileID: 5527342228665820993, guid: 40fe050dd59326a4abf6f3c076f08670,
        type: 3}
      propertyPath: m_LocalRotation.z
      value: -0
      objectReference: {fileID: 0}
    - target: {fileID: 5527342228665820993, guid: 40fe050dd59326a4abf6f3c076f08670,
        type: 3}
      propertyPath: m_LocalEulerAnglesHint.x
      value: 0
      objectReference: {fileID: 0}
    - target: {fileID: 5527342228665820993, guid: 40fe050dd59326a4abf6f3c076f08670,
        type: 3}
      propertyPath: m_LocalEulerAnglesHint.y
      value: 0
      objectReference: {fileID: 0}
    - target: {fileID: 5527342228665820993, guid: 40fe050dd59326a4abf6f3c076f08670,
        type: 3}
      propertyPath: m_LocalEulerAnglesHint.z
      value: 0
      objectReference: {fileID: 0}
    - target: {fileID: 7442893935984207594, guid: 40fe050dd59326a4abf6f3c076f08670,
        type: 3}
      propertyPath: m_Name
      value: Covering
      objectReference: {fileID: 0}
    m_RemovedComponents: []
  m_SourcePrefab: {fileID: 100100000, guid: 40fe050dd59326a4abf6f3c076f08670, type: 3}
--- !u!4 &856856196 stripped
Transform:
  m_CorrespondingSourceObject: {fileID: 5527342228665820993, guid: 40fe050dd59326a4abf6f3c076f08670,
    type: 3}
  m_PrefabInstance: {fileID: 856856195}
  m_PrefabAsset: {fileID: 0}
--- !u!1001 &1034074794
PrefabInstance:
  m_ObjectHideFlags: 0
  serializedVersion: 2
  m_Modification:
    m_TransformParent: {fileID: 832359345}
    m_Modifications:
    - target: {fileID: 5527342228665820993, guid: 40fe050dd59326a4abf6f3c076f08670,
        type: 3}
      propertyPath: m_RootOrder
      value: 2
      objectReference: {fileID: 0}
    - target: {fileID: 5527342228665820993, guid: 40fe050dd59326a4abf6f3c076f08670,
        type: 3}
      propertyPath: m_LocalPosition.x
      value: 0
      objectReference: {fileID: 0}
    - target: {fileID: 5527342228665820993, guid: 40fe050dd59326a4abf6f3c076f08670,
        type: 3}
      propertyPath: m_LocalPosition.y
      value: -1.15
      objectReference: {fileID: 0}
    - target: {fileID: 5527342228665820993, guid: 40fe050dd59326a4abf6f3c076f08670,
        type: 3}
      propertyPath: m_LocalPosition.z
      value: 0
      objectReference: {fileID: 0}
    - target: {fileID: 5527342228665820993, guid: 40fe050dd59326a4abf6f3c076f08670,
        type: 3}
      propertyPath: m_LocalRotation.w
      value: 1
      objectReference: {fileID: 0}
    - target: {fileID: 5527342228665820993, guid: 40fe050dd59326a4abf6f3c076f08670,
        type: 3}
      propertyPath: m_LocalRotation.x
      value: -0
      objectReference: {fileID: 0}
    - target: {fileID: 5527342228665820993, guid: 40fe050dd59326a4abf6f3c076f08670,
        type: 3}
      propertyPath: m_LocalRotation.y
      value: -0
      objectReference: {fileID: 0}
    - target: {fileID: 5527342228665820993, guid: 40fe050dd59326a4abf6f3c076f08670,
        type: 3}
      propertyPath: m_LocalRotation.z
      value: -0
      objectReference: {fileID: 0}
    - target: {fileID: 5527342228665820993, guid: 40fe050dd59326a4abf6f3c076f08670,
        type: 3}
      propertyPath: m_LocalEulerAnglesHint.x
      value: 0
      objectReference: {fileID: 0}
    - target: {fileID: 5527342228665820993, guid: 40fe050dd59326a4abf6f3c076f08670,
        type: 3}
      propertyPath: m_LocalEulerAnglesHint.y
      value: 0
      objectReference: {fileID: 0}
    - target: {fileID: 5527342228665820993, guid: 40fe050dd59326a4abf6f3c076f08670,
        type: 3}
      propertyPath: m_LocalEulerAnglesHint.z
      value: 0
      objectReference: {fileID: 0}
    - target: {fileID: 7442893935984207594, guid: 40fe050dd59326a4abf6f3c076f08670,
        type: 3}
      propertyPath: m_Name
      value: Covering (1)
      objectReference: {fileID: 0}
    m_RemovedComponents: []
  m_SourcePrefab: {fileID: 100100000, guid: 40fe050dd59326a4abf6f3c076f08670, type: 3}
--- !u!4 &1034074795 stripped
Transform:
  m_CorrespondingSourceObject: {fileID: 5527342228665820993, guid: 40fe050dd59326a4abf6f3c076f08670,
    type: 3}
  m_PrefabInstance: {fileID: 1034074794}
  m_PrefabAsset: {fileID: 0}
--- !u!1001 &1300908041
PrefabInstance:
  m_ObjectHideFlags: 0
  serializedVersion: 2
  m_Modification:
    m_TransformParent: {fileID: 832359345}
    m_Modifications:
    - target: {fileID: 3035971654861099221, guid: 0b69e663c257d1542b5d3f70031a56db,
        type: 3}
      propertyPath: m_RootOrder
      value: 3
      objectReference: {fileID: 0}
    - target: {fileID: 3035971654861099221, guid: 0b69e663c257d1542b5d3f70031a56db,
        type: 3}
      propertyPath: m_LocalPosition.x
      value: 30.17752
      objectReference: {fileID: 0}
    - target: {fileID: 3035971654861099221, guid: 0b69e663c257d1542b5d3f70031a56db,
        type: 3}
      propertyPath: m_LocalPosition.y
      value: -1.565508
      objectReference: {fileID: 0}
    - target: {fileID: 3035971654861099221, guid: 0b69e663c257d1542b5d3f70031a56db,
        type: 3}
      propertyPath: m_LocalPosition.z
      value: 0
      objectReference: {fileID: 0}
    - target: {fileID: 3035971654861099221, guid: 0b69e663c257d1542b5d3f70031a56db,
        type: 3}
      propertyPath: m_LocalRotation.w
      value: 1
      objectReference: {fileID: 0}
    - target: {fileID: 3035971654861099221, guid: 0b69e663c257d1542b5d3f70031a56db,
        type: 3}
      propertyPath: m_LocalRotation.x
      value: -0
      objectReference: {fileID: 0}
    - target: {fileID: 3035971654861099221, guid: 0b69e663c257d1542b5d3f70031a56db,
        type: 3}
      propertyPath: m_LocalRotation.y
      value: -0
      objectReference: {fileID: 0}
    - target: {fileID: 3035971654861099221, guid: 0b69e663c257d1542b5d3f70031a56db,
        type: 3}
      propertyPath: m_LocalRotation.z
      value: -0
      objectReference: {fileID: 0}
    - target: {fileID: 3035971654861099221, guid: 0b69e663c257d1542b5d3f70031a56db,
        type: 3}
      propertyPath: m_LocalEulerAnglesHint.x
      value: 0
      objectReference: {fileID: 0}
    - target: {fileID: 3035971654861099221, guid: 0b69e663c257d1542b5d3f70031a56db,
        type: 3}
      propertyPath: m_LocalEulerAnglesHint.y
      value: 0
      objectReference: {fileID: 0}
    - target: {fileID: 3035971654861099221, guid: 0b69e663c257d1542b5d3f70031a56db,
        type: 3}
      propertyPath: m_LocalEulerAnglesHint.z
      value: 0
      objectReference: {fileID: 0}
    - target: {fileID: 4046524071250260435, guid: 0b69e663c257d1542b5d3f70031a56db,
        type: 3}
      propertyPath: m_Name
      value: Covering3 (1)
      objectReference: {fileID: 0}
    m_RemovedComponents: []
  m_SourcePrefab: {fileID: 100100000, guid: 0b69e663c257d1542b5d3f70031a56db, type: 3}
--- !u!4 &1300908042 stripped
Transform:
  m_CorrespondingSourceObject: {fileID: 3035971654861099221, guid: 0b69e663c257d1542b5d3f70031a56db,
    type: 3}
  m_PrefabInstance: {fileID: 1300908041}
  m_PrefabAsset: {fileID: 0}
--- !u!1001 &1366470669
PrefabInstance:
  m_ObjectHideFlags: 0
  serializedVersion: 2
  m_Modification:
    m_TransformParent: {fileID: 1823963131}
    m_Modifications:
    - target: {fileID: 5527342228665820993, guid: 40fe050dd59326a4abf6f3c076f08670,
        type: 3}
      propertyPath: m_RootOrder
      value: 2
      objectReference: {fileID: 0}
    - target: {fileID: 5527342228665820993, guid: 40fe050dd59326a4abf6f3c076f08670,
        type: 3}
      propertyPath: m_LocalPosition.x
      value: 0
      objectReference: {fileID: 0}
    - target: {fileID: 5527342228665820993, guid: 40fe050dd59326a4abf6f3c076f08670,
        type: 3}
      propertyPath: m_LocalPosition.y
      value: -1.15
      objectReference: {fileID: 0}
    - target: {fileID: 5527342228665820993, guid: 40fe050dd59326a4abf6f3c076f08670,
        type: 3}
      propertyPath: m_LocalPosition.z
      value: 0
      objectReference: {fileID: 0}
    - target: {fileID: 5527342228665820993, guid: 40fe050dd59326a4abf6f3c076f08670,
        type: 3}
      propertyPath: m_LocalRotation.w
      value: 1
      objectReference: {fileID: 0}
    - target: {fileID: 5527342228665820993, guid: 40fe050dd59326a4abf6f3c076f08670,
        type: 3}
      propertyPath: m_LocalRotation.x
      value: -0
      objectReference: {fileID: 0}
    - target: {fileID: 5527342228665820993, guid: 40fe050dd59326a4abf6f3c076f08670,
        type: 3}
      propertyPath: m_LocalRotation.y
      value: -0
      objectReference: {fileID: 0}
    - target: {fileID: 5527342228665820993, guid: 40fe050dd59326a4abf6f3c076f08670,
        type: 3}
      propertyPath: m_LocalRotation.z
      value: -0
      objectReference: {fileID: 0}
    - target: {fileID: 5527342228665820993, guid: 40fe050dd59326a4abf6f3c076f08670,
        type: 3}
      propertyPath: m_LocalEulerAnglesHint.x
      value: 0
      objectReference: {fileID: 0}
    - target: {fileID: 5527342228665820993, guid: 40fe050dd59326a4abf6f3c076f08670,
        type: 3}
      propertyPath: m_LocalEulerAnglesHint.y
      value: 0
      objectReference: {fileID: 0}
    - target: {fileID: 5527342228665820993, guid: 40fe050dd59326a4abf6f3c076f08670,
        type: 3}
      propertyPath: m_LocalEulerAnglesHint.z
      value: 0
      objectReference: {fileID: 0}
    - target: {fileID: 7442893935984207594, guid: 40fe050dd59326a4abf6f3c076f08670,
        type: 3}
      propertyPath: m_Name
      value: Covering (1)
      objectReference: {fileID: 0}
    m_RemovedComponents: []
  m_SourcePrefab: {fileID: 100100000, guid: 40fe050dd59326a4abf6f3c076f08670, type: 3}
--- !u!1001 &1372574656
PrefabInstance:
  m_ObjectHideFlags: 0
  serializedVersion: 2
  m_Modification:
    m_TransformParent: {fileID: 2074436588}
    m_Modifications:
    - target: {fileID: 8369092987232642426, guid: 1c1467b71d8d982468977b946158a2a3,
        type: 3}
      propertyPath: m_RootOrder
      value: 1
      objectReference: {fileID: 0}
    - target: {fileID: 8369092987232642426, guid: 1c1467b71d8d982468977b946158a2a3,
        type: 3}
      propertyPath: m_LocalPosition.x
      value: 39.983135
      objectReference: {fileID: 0}
    - target: {fileID: 8369092987232642426, guid: 1c1467b71d8d982468977b946158a2a3,
        type: 3}
      propertyPath: m_LocalPosition.y
      value: -1.565508
      objectReference: {fileID: 0}
    - target: {fileID: 8369092987232642426, guid: 1c1467b71d8d982468977b946158a2a3,
        type: 3}
      propertyPath: m_LocalPosition.z
      value: 0
      objectReference: {fileID: 0}
    - target: {fileID: 8369092987232642426, guid: 1c1467b71d8d982468977b946158a2a3,
        type: 3}
      propertyPath: m_LocalRotation.w
      value: 1
      objectReference: {fileID: 0}
    - target: {fileID: 8369092987232642426, guid: 1c1467b71d8d982468977b946158a2a3,
        type: 3}
      propertyPath: m_LocalRotation.x
      value: -0
      objectReference: {fileID: 0}
    - target: {fileID: 8369092987232642426, guid: 1c1467b71d8d982468977b946158a2a3,
        type: 3}
      propertyPath: m_LocalRotation.y
      value: -0
      objectReference: {fileID: 0}
    - target: {fileID: 8369092987232642426, guid: 1c1467b71d8d982468977b946158a2a3,
        type: 3}
      propertyPath: m_LocalRotation.z
      value: -0
      objectReference: {fileID: 0}
    - target: {fileID: 8369092987232642426, guid: 1c1467b71d8d982468977b946158a2a3,
        type: 3}
      propertyPath: m_LocalEulerAnglesHint.x
      value: 0
      objectReference: {fileID: 0}
    - target: {fileID: 8369092987232642426, guid: 1c1467b71d8d982468977b946158a2a3,
        type: 3}
      propertyPath: m_LocalEulerAnglesHint.y
      value: 0
      objectReference: {fileID: 0}
    - target: {fileID: 8369092987232642426, guid: 1c1467b71d8d982468977b946158a2a3,
        type: 3}
      propertyPath: m_LocalEulerAnglesHint.z
      value: 0
      objectReference: {fileID: 0}
    - target: {fileID: 8369092987232642429, guid: 1c1467b71d8d982468977b946158a2a3,
        type: 3}
      propertyPath: _fovAngle
      value: 90
      objectReference: {fileID: 0}
    - target: {fileID: 8369092987232642429, guid: 1c1467b71d8d982468977b946158a2a3,
        type: 3}
      propertyPath: _enemyRaiseTime
      value: 1
      objectReference: {fileID: 0}
    - target: {fileID: 8369092987232642429, guid: 1c1467b71d8d982468977b946158a2a3,
        type: 3}
      propertyPath: _raycastDownTime
      value: 1
      objectReference: {fileID: 0}
    - target: {fileID: 8369092987232642429, guid: 1c1467b71d8d982468977b946158a2a3,
        type: 3}
      propertyPath: _raycastDownDelay
      value: 1
      objectReference: {fileID: 0}
    - target: {fileID: 8369092987232642429, guid: 1c1467b71d8d982468977b946158a2a3,
        type: 3}
      propertyPath: _raycastStartDelay
      value: 1
      objectReference: {fileID: 0}
    - target: {fileID: 8369092987232642430, guid: 1c1467b71d8d982468977b946158a2a3,
        type: 3}
      propertyPath: m_Name
      value: EnemyTrigger (1)
      objectReference: {fileID: 0}
    m_RemovedComponents: []
  m_SourcePrefab: {fileID: 100100000, guid: 1c1467b71d8d982468977b946158a2a3, type: 3}
--- !u!1001 &1446080473
PrefabInstance:
  m_ObjectHideFlags: 0
  serializedVersion: 2
  m_Modification:
    m_TransformParent: {fileID: 2074436588}
    m_Modifications:
    - target: {fileID: 8369092987232642426, guid: 1c1467b71d8d982468977b946158a2a3,
        type: 3}
      propertyPath: m_RootOrder
      value: 2
      objectReference: {fileID: 0}
    - target: {fileID: 8369092987232642426, guid: 1c1467b71d8d982468977b946158a2a3,
        type: 3}
      propertyPath: m_LocalPosition.x
      value: 59.908604
      objectReference: {fileID: 0}
    - target: {fileID: 8369092987232642426, guid: 1c1467b71d8d982468977b946158a2a3,
        type: 3}
      propertyPath: m_LocalPosition.y
      value: -1.565508
      objectReference: {fileID: 0}
    - target: {fileID: 8369092987232642426, guid: 1c1467b71d8d982468977b946158a2a3,
        type: 3}
      propertyPath: m_LocalPosition.z
      value: 0
      objectReference: {fileID: 0}
    - target: {fileID: 8369092987232642426, guid: 1c1467b71d8d982468977b946158a2a3,
        type: 3}
      propertyPath: m_LocalRotation.w
      value: 1
      objectReference: {fileID: 0}
    - target: {fileID: 8369092987232642426, guid: 1c1467b71d8d982468977b946158a2a3,
        type: 3}
      propertyPath: m_LocalRotation.x
      value: -0
      objectReference: {fileID: 0}
    - target: {fileID: 8369092987232642426, guid: 1c1467b71d8d982468977b946158a2a3,
        type: 3}
      propertyPath: m_LocalRotation.y
      value: -0
      objectReference: {fileID: 0}
    - target: {fileID: 8369092987232642426, guid: 1c1467b71d8d982468977b946158a2a3,
        type: 3}
      propertyPath: m_LocalRotation.z
      value: -0
      objectReference: {fileID: 0}
    - target: {fileID: 8369092987232642426, guid: 1c1467b71d8d982468977b946158a2a3,
        type: 3}
      propertyPath: m_LocalEulerAnglesHint.x
      value: 0
      objectReference: {fileID: 0}
    - target: {fileID: 8369092987232642426, guid: 1c1467b71d8d982468977b946158a2a3,
        type: 3}
      propertyPath: m_LocalEulerAnglesHint.y
      value: 0
      objectReference: {fileID: 0}
    - target: {fileID: 8369092987232642426, guid: 1c1467b71d8d982468977b946158a2a3,
        type: 3}
      propertyPath: m_LocalEulerAnglesHint.z
      value: 0
      objectReference: {fileID: 0}
    - target: {fileID: 8369092987232642429, guid: 1c1467b71d8d982468977b946158a2a3,
        type: 3}
      propertyPath: _fovAngle
      value: 90
      objectReference: {fileID: 0}
    - target: {fileID: 8369092987232642429, guid: 1c1467b71d8d982468977b946158a2a3,
        type: 3}
      propertyPath: _enemyRaiseTime
      value: 1
      objectReference: {fileID: 0}
    - target: {fileID: 8369092987232642429, guid: 1c1467b71d8d982468977b946158a2a3,
        type: 3}
      propertyPath: _raycastDownTime
      value: 6
      objectReference: {fileID: 0}
    - target: {fileID: 8369092987232642429, guid: 1c1467b71d8d982468977b946158a2a3,
        type: 3}
      propertyPath: _raycastDownDelay
      value: 2
      objectReference: {fileID: 0}
    - target: {fileID: 8369092987232642429, guid: 1c1467b71d8d982468977b946158a2a3,
        type: 3}
      propertyPath: _raycastStartDelay
      value: 3
      objectReference: {fileID: 0}
    - target: {fileID: 8369092987232642430, guid: 1c1467b71d8d982468977b946158a2a3,
        type: 3}
      propertyPath: m_Name
      value: EnemyTrigger (2)
      objectReference: {fileID: 0}
    m_RemovedComponents: []
  m_SourcePrefab: {fileID: 100100000, guid: 1c1467b71d8d982468977b946158a2a3, type: 3}
--- !u!1001 &1642932798
PrefabInstance:
  m_ObjectHideFlags: 0
  serializedVersion: 2
  m_Modification:
    m_TransformParent: {fileID: 1823963131}
    m_Modifications:
    - target: {fileID: 1104114581813182370, guid: ecd47492c112bc148ae0968e081d9113,
        type: 3}
      propertyPath: m_Name
      value: Covering6
      objectReference: {fileID: 0}
    - target: {fileID: 5354699702964708401, guid: ecd47492c112bc148ae0968e081d9113,
        type: 3}
      propertyPath: m_RootOrder
      value: 1
      objectReference: {fileID: 0}
    - target: {fileID: 5354699702964708401, guid: ecd47492c112bc148ae0968e081d9113,
        type: 3}
      propertyPath: m_LocalPosition.x
      value: 50.245502
      objectReference: {fileID: 0}
    - target: {fileID: 5354699702964708401, guid: ecd47492c112bc148ae0968e081d9113,
        type: 3}
      propertyPath: m_LocalPosition.y
      value: -1.3752468
      objectReference: {fileID: 0}
    - target: {fileID: 5354699702964708401, guid: ecd47492c112bc148ae0968e081d9113,
        type: 3}
      propertyPath: m_LocalPosition.z
      value: 0
      objectReference: {fileID: 0}
    - target: {fileID: 5354699702964708401, guid: ecd47492c112bc148ae0968e081d9113,
        type: 3}
      propertyPath: m_LocalRotation.w
      value: 1
      objectReference: {fileID: 0}
    - target: {fileID: 5354699702964708401, guid: ecd47492c112bc148ae0968e081d9113,
        type: 3}
      propertyPath: m_LocalRotation.x
      value: -0
      objectReference: {fileID: 0}
    - target: {fileID: 5354699702964708401, guid: ecd47492c112bc148ae0968e081d9113,
        type: 3}
      propertyPath: m_LocalRotation.y
      value: -0
      objectReference: {fileID: 0}
    - target: {fileID: 5354699702964708401, guid: ecd47492c112bc148ae0968e081d9113,
        type: 3}
      propertyPath: m_LocalRotation.z
      value: -0
      objectReference: {fileID: 0}
    - target: {fileID: 5354699702964708401, guid: ecd47492c112bc148ae0968e081d9113,
        type: 3}
      propertyPath: m_LocalEulerAnglesHint.x
      value: 0
      objectReference: {fileID: 0}
    - target: {fileID: 5354699702964708401, guid: ecd47492c112bc148ae0968e081d9113,
        type: 3}
      propertyPath: m_LocalEulerAnglesHint.y
      value: 0
      objectReference: {fileID: 0}
    - target: {fileID: 5354699702964708401, guid: ecd47492c112bc148ae0968e081d9113,
        type: 3}
      propertyPath: m_LocalEulerAnglesHint.z
      value: 0
      objectReference: {fileID: 0}
    m_RemovedComponents: []
  m_SourcePrefab: {fileID: 100100000, guid: ecd47492c112bc148ae0968e081d9113, type: 3}
--- !u!1001 &1823963129
PrefabInstance:
  m_ObjectHideFlags: 0
  serializedVersion: 2
  m_Modification:
    m_TransformParent: {fileID: 0}
    m_Modifications:
    - target: {fileID: 313717137870215674, guid: 2a8b372dfd8221d4bb8b7fbb8c50c2ce,
        type: 3}
      propertyPath: m_LocalPosition.x
      value: 98.732445
      objectReference: {fileID: 0}
    - target: {fileID: 1502366203283406258, guid: 2a8b372dfd8221d4bb8b7fbb8c50c2ce,
        type: 3}
      propertyPath: m_LocalPosition.z
      value: 0
      objectReference: {fileID: 0}
    - target: {fileID: 2175710233271620722, guid: 2a8b372dfd8221d4bb8b7fbb8c50c2ce,
        type: 3}
      propertyPath: m_Name
      value: ScenePrefab
      objectReference: {fileID: 0}
    - target: {fileID: 2175710233271620722, guid: 2a8b372dfd8221d4bb8b7fbb8c50c2ce,
        type: 3}
      propertyPath: m_IsActive
      value: 0
      objectReference: {fileID: 0}
    - target: {fileID: 2729037028314151804, guid: 2a8b372dfd8221d4bb8b7fbb8c50c2ce,
        type: 3}
      propertyPath: m_Mesh
      value: 
      objectReference: {fileID: 0}
    - target: {fileID: 3297061980896017134, guid: 2a8b372dfd8221d4bb8b7fbb8c50c2ce,
        type: 3}
      propertyPath: m_LocalPosition.z
      value: 0
      objectReference: {fileID: 0}
    - target: {fileID: 3446694299441341244, guid: 2a8b372dfd8221d4bb8b7fbb8c50c2ce,
        type: 3}
      propertyPath: m_RootOrder
      value: 1
      objectReference: {fileID: 0}
    - target: {fileID: 3446694299441341244, guid: 2a8b372dfd8221d4bb8b7fbb8c50c2ce,
        type: 3}
      propertyPath: m_LocalPosition.x
      value: 0
      objectReference: {fileID: 0}
    - target: {fileID: 3446694299441341244, guid: 2a8b372dfd8221d4bb8b7fbb8c50c2ce,
        type: 3}
      propertyPath: m_LocalPosition.y
      value: 0
      objectReference: {fileID: 0}
    - target: {fileID: 3446694299441341244, guid: 2a8b372dfd8221d4bb8b7fbb8c50c2ce,
        type: 3}
      propertyPath: m_LocalPosition.z
      value: -10
      objectReference: {fileID: 0}
    - target: {fileID: 3446694299441341244, guid: 2a8b372dfd8221d4bb8b7fbb8c50c2ce,
        type: 3}
      propertyPath: m_LocalRotation.w
      value: 1
      objectReference: {fileID: 0}
    - target: {fileID: 3446694299441341244, guid: 2a8b372dfd8221d4bb8b7fbb8c50c2ce,
        type: 3}
      propertyPath: m_LocalRotation.x
      value: 0
      objectReference: {fileID: 0}
    - target: {fileID: 3446694299441341244, guid: 2a8b372dfd8221d4bb8b7fbb8c50c2ce,
        type: 3}
      propertyPath: m_LocalRotation.y
      value: 0
      objectReference: {fileID: 0}
    - target: {fileID: 3446694299441341244, guid: 2a8b372dfd8221d4bb8b7fbb8c50c2ce,
        type: 3}
      propertyPath: m_LocalRotation.z
      value: 0
      objectReference: {fileID: 0}
    - target: {fileID: 3446694299441341244, guid: 2a8b372dfd8221d4bb8b7fbb8c50c2ce,
        type: 3}
      propertyPath: m_LocalEulerAnglesHint.x
      value: 0
      objectReference: {fileID: 0}
    - target: {fileID: 3446694299441341244, guid: 2a8b372dfd8221d4bb8b7fbb8c50c2ce,
        type: 3}
      propertyPath: m_LocalEulerAnglesHint.y
      value: 0
      objectReference: {fileID: 0}
    - target: {fileID: 3446694299441341244, guid: 2a8b372dfd8221d4bb8b7fbb8c50c2ce,
        type: 3}
      propertyPath: m_LocalEulerAnglesHint.z
      value: 0
      objectReference: {fileID: 0}
    - target: {fileID: 7357044427251923040, guid: 2a8b372dfd8221d4bb8b7fbb8c50c2ce,
        type: 3}
      propertyPath: _dialogueToLoadOnFinish
      value: D1_Cth3
      objectReference: {fileID: 0}
    m_RemovedComponents: []
  m_SourcePrefab: {fileID: 100100000, guid: 2a8b372dfd8221d4bb8b7fbb8c50c2ce, type: 3}
--- !u!4 &1823963130 stripped
Transform:
  m_CorrespondingSourceObject: {fileID: 1625053633438997589, guid: 2a8b372dfd8221d4bb8b7fbb8c50c2ce,
    type: 3}
  m_PrefabInstance: {fileID: 1823963129}
  m_PrefabAsset: {fileID: 0}
--- !u!4 &1823963131 stripped
Transform:
  m_CorrespondingSourceObject: {fileID: 7934781235446804242, guid: 2a8b372dfd8221d4bb8b7fbb8c50c2ce,
    type: 3}
  m_PrefabInstance: {fileID: 1823963129}
  m_PrefabAsset: {fileID: 0}
--- !u!1001 &1826367996
PrefabInstance:
  m_ObjectHideFlags: 0
  serializedVersion: 2
  m_Modification:
    m_TransformParent: {fileID: 1823963130}
    m_Modifications:
    - target: {fileID: 8369092987232642426, guid: 1c1467b71d8d982468977b946158a2a3,
        type: 3}
      propertyPath: m_RootOrder
      value: 1
      objectReference: {fileID: 0}
    - target: {fileID: 8369092987232642426, guid: 1c1467b71d8d982468977b946158a2a3,
        type: 3}
      propertyPath: m_LocalPosition.x
      value: 39.983135
      objectReference: {fileID: 0}
    - target: {fileID: 8369092987232642426, guid: 1c1467b71d8d982468977b946158a2a3,
        type: 3}
      propertyPath: m_LocalPosition.y
      value: -1.5655079
      objectReference: {fileID: 0}
    - target: {fileID: 8369092987232642426, guid: 1c1467b71d8d982468977b946158a2a3,
        type: 3}
      propertyPath: m_LocalPosition.z
      value: 0
      objectReference: {fileID: 0}
    - target: {fileID: 8369092987232642426, guid: 1c1467b71d8d982468977b946158a2a3,
        type: 3}
      propertyPath: m_LocalRotation.w
      value: 1
      objectReference: {fileID: 0}
    - target: {fileID: 8369092987232642426, guid: 1c1467b71d8d982468977b946158a2a3,
        type: 3}
      propertyPath: m_LocalRotation.x
      value: -0
      objectReference: {fileID: 0}
    - target: {fileID: 8369092987232642426, guid: 1c1467b71d8d982468977b946158a2a3,
        type: 3}
      propertyPath: m_LocalRotation.y
      value: -0
      objectReference: {fileID: 0}
    - target: {fileID: 8369092987232642426, guid: 1c1467b71d8d982468977b946158a2a3,
        type: 3}
      propertyPath: m_LocalRotation.z
      value: -0
      objectReference: {fileID: 0}
    - target: {fileID: 8369092987232642426, guid: 1c1467b71d8d982468977b946158a2a3,
        type: 3}
      propertyPath: m_LocalEulerAnglesHint.x
      value: 0
      objectReference: {fileID: 0}
    - target: {fileID: 8369092987232642426, guid: 1c1467b71d8d982468977b946158a2a3,
        type: 3}
      propertyPath: m_LocalEulerAnglesHint.y
      value: 0
      objectReference: {fileID: 0}
    - target: {fileID: 8369092987232642426, guid: 1c1467b71d8d982468977b946158a2a3,
        type: 3}
      propertyPath: m_LocalEulerAnglesHint.z
      value: 0
      objectReference: {fileID: 0}
    - target: {fileID: 8369092987232642429, guid: 1c1467b71d8d982468977b946158a2a3,
        type: 3}
      propertyPath: _fovAngle
      value: 90
      objectReference: {fileID: 0}
    - target: {fileID: 8369092987232642429, guid: 1c1467b71d8d982468977b946158a2a3,
        type: 3}
      propertyPath: _enemyRaiseTime
      value: 1
      objectReference: {fileID: 0}
    - target: {fileID: 8369092987232642429, guid: 1c1467b71d8d982468977b946158a2a3,
        type: 3}
      propertyPath: _raycastDownTime
      value: 1
      objectReference: {fileID: 0}
    - target: {fileID: 8369092987232642429, guid: 1c1467b71d8d982468977b946158a2a3,
        type: 3}
      propertyPath: _raycastDownDelay
      value: 1
      objectReference: {fileID: 0}
    - target: {fileID: 8369092987232642429, guid: 1c1467b71d8d982468977b946158a2a3,
        type: 3}
      propertyPath: _raycastStartDelay
      value: 1
      objectReference: {fileID: 0}
    - target: {fileID: 8369092987232642430, guid: 1c1467b71d8d982468977b946158a2a3,
        type: 3}
      propertyPath: m_Name
      value: EnemyTrigger (1)
      objectReference: {fileID: 0}
    m_RemovedComponents: []
  m_SourcePrefab: {fileID: 100100000, guid: 1c1467b71d8d982468977b946158a2a3, type: 3}
--- !u!1001 &1914758000
PrefabInstance:
  m_ObjectHideFlags: 0
  serializedVersion: 2
  m_Modification:
    m_TransformParent: {fileID: 832359345}
    m_Modifications:
    - target: {fileID: 1104114581813182370, guid: ecd47492c112bc148ae0968e081d9113,
        type: 3}
      propertyPath: m_Name
      value: Covering6
      objectReference: {fileID: 0}
    - target: {fileID: 5354699702964708401, guid: ecd47492c112bc148ae0968e081d9113,
        type: 3}
      propertyPath: m_RootOrder
      value: 1
      objectReference: {fileID: 0}
    - target: {fileID: 5354699702964708401, guid: ecd47492c112bc148ae0968e081d9113,
        type: 3}
      propertyPath: m_LocalPosition.x
      value: 50.245502
      objectReference: {fileID: 0}
    - target: {fileID: 5354699702964708401, guid: ecd47492c112bc148ae0968e081d9113,
        type: 3}
      propertyPath: m_LocalPosition.y
      value: -1.565508
      objectReference: {fileID: 0}
    - target: {fileID: 5354699702964708401, guid: ecd47492c112bc148ae0968e081d9113,
        type: 3}
      propertyPath: m_LocalPosition.z
      value: 0
      objectReference: {fileID: 0}
    - target: {fileID: 5354699702964708401, guid: ecd47492c112bc148ae0968e081d9113,
        type: 3}
      propertyPath: m_LocalRotation.w
      value: 1
      objectReference: {fileID: 0}
    - target: {fileID: 5354699702964708401, guid: ecd47492c112bc148ae0968e081d9113,
        type: 3}
      propertyPath: m_LocalRotation.x
      value: -0
      objectReference: {fileID: 0}
    - target: {fileID: 5354699702964708401, guid: ecd47492c112bc148ae0968e081d9113,
        type: 3}
      propertyPath: m_LocalRotation.y
      value: -0
      objectReference: {fileID: 0}
    - target: {fileID: 5354699702964708401, guid: ecd47492c112bc148ae0968e081d9113,
        type: 3}
      propertyPath: m_LocalRotation.z
      value: -0
      objectReference: {fileID: 0}
    - target: {fileID: 5354699702964708401, guid: ecd47492c112bc148ae0968e081d9113,
        type: 3}
      propertyPath: m_LocalEulerAnglesHint.x
      value: 0
      objectReference: {fileID: 0}
    - target: {fileID: 5354699702964708401, guid: ecd47492c112bc148ae0968e081d9113,
        type: 3}
      propertyPath: m_LocalEulerAnglesHint.y
      value: 0
      objectReference: {fileID: 0}
    - target: {fileID: 5354699702964708401, guid: ecd47492c112bc148ae0968e081d9113,
        type: 3}
      propertyPath: m_LocalEulerAnglesHint.z
      value: 0
      objectReference: {fileID: 0}
    m_RemovedComponents: []
  m_SourcePrefab: {fileID: 100100000, guid: ecd47492c112bc148ae0968e081d9113, type: 3}
--- !u!4 &1914758001 stripped
Transform:
  m_CorrespondingSourceObject: {fileID: 5354699702964708401, guid: ecd47492c112bc148ae0968e081d9113,
    type: 3}
  m_PrefabInstance: {fileID: 1914758000}
  m_PrefabAsset: {fileID: 0}
--- !u!1001 &1947378333
PrefabInstance:
  m_ObjectHideFlags: 0
  serializedVersion: 2
  m_Modification:
    m_TransformParent: {fileID: 1823963130}
    m_Modifications:
    - target: {fileID: 8369092987232642426, guid: 1c1467b71d8d982468977b946158a2a3,
        type: 3}
      propertyPath: m_RootOrder
      value: 2
      objectReference: {fileID: 0}
    - target: {fileID: 8369092987232642426, guid: 1c1467b71d8d982468977b946158a2a3,
        type: 3}
      propertyPath: m_LocalPosition.x
      value: 59.908604
      objectReference: {fileID: 0}
    - target: {fileID: 8369092987232642426, guid: 1c1467b71d8d982468977b946158a2a3,
        type: 3}
      propertyPath: m_LocalPosition.y
      value: -1.5655079
      objectReference: {fileID: 0}
    - target: {fileID: 8369092987232642426, guid: 1c1467b71d8d982468977b946158a2a3,
        type: 3}
      propertyPath: m_LocalPosition.z
      value: 0
      objectReference: {fileID: 0}
    - target: {fileID: 8369092987232642426, guid: 1c1467b71d8d982468977b946158a2a3,
        type: 3}
      propertyPath: m_LocalRotation.w
      value: 1
      objectReference: {fileID: 0}
    - target: {fileID: 8369092987232642426, guid: 1c1467b71d8d982468977b946158a2a3,
        type: 3}
      propertyPath: m_LocalRotation.x
      value: -0
      objectReference: {fileID: 0}
    - target: {fileID: 8369092987232642426, guid: 1c1467b71d8d982468977b946158a2a3,
        type: 3}
      propertyPath: m_LocalRotation.y
      value: -0
      objectReference: {fileID: 0}
    - target: {fileID: 8369092987232642426, guid: 1c1467b71d8d982468977b946158a2a3,
        type: 3}
      propertyPath: m_LocalRotation.z
      value: -0
      objectReference: {fileID: 0}
    - target: {fileID: 8369092987232642426, guid: 1c1467b71d8d982468977b946158a2a3,
        type: 3}
      propertyPath: m_LocalEulerAnglesHint.x
      value: 0
      objectReference: {fileID: 0}
    - target: {fileID: 8369092987232642426, guid: 1c1467b71d8d982468977b946158a2a3,
        type: 3}
      propertyPath: m_LocalEulerAnglesHint.y
      value: 0
      objectReference: {fileID: 0}
    - target: {fileID: 8369092987232642426, guid: 1c1467b71d8d982468977b946158a2a3,
        type: 3}
      propertyPath: m_LocalEulerAnglesHint.z
      value: 0
      objectReference: {fileID: 0}
    - target: {fileID: 8369092987232642429, guid: 1c1467b71d8d982468977b946158a2a3,
        type: 3}
      propertyPath: _fovAngle
      value: 90
      objectReference: {fileID: 0}
    - target: {fileID: 8369092987232642429, guid: 1c1467b71d8d982468977b946158a2a3,
        type: 3}
      propertyPath: _enemyRaiseTime
      value: 1
      objectReference: {fileID: 0}
    - target: {fileID: 8369092987232642429, guid: 1c1467b71d8d982468977b946158a2a3,
        type: 3}
      propertyPath: _raycastDownTime
      value: 6
      objectReference: {fileID: 0}
    - target: {fileID: 8369092987232642429, guid: 1c1467b71d8d982468977b946158a2a3,
        type: 3}
      propertyPath: _raycastDownDelay
      value: 2
      objectReference: {fileID: 0}
    - target: {fileID: 8369092987232642429, guid: 1c1467b71d8d982468977b946158a2a3,
        type: 3}
      propertyPath: _raycastStartDelay
      value: 3
      objectReference: {fileID: 0}
    - target: {fileID: 8369092987232642430, guid: 1c1467b71d8d982468977b946158a2a3,
        type: 3}
      propertyPath: m_Name
      value: EnemyTrigger (2)
      objectReference: {fileID: 0}
    m_RemovedComponents: []
  m_SourcePrefab: {fileID: 100100000, guid: 1c1467b71d8d982468977b946158a2a3, type: 3}
--- !u!1001 &2074436586
PrefabInstance:
  m_ObjectHideFlags: 0
  serializedVersion: 2
  m_Modification:
    m_TransformParent: {fileID: 0}
    m_Modifications:
    - target: {fileID: 1759760941342865552, guid: e19f3966773a601499df8fc7fe7a682d,
        type: 3}
      propertyPath: m_LocalPosition.x
      value: 98.73244
      objectReference: {fileID: 0}
    - target: {fileID: 1759760941342865552, guid: e19f3966773a601499df8fc7fe7a682d,
        type: 3}
      propertyPath: m_LocalPosition.y
      value: -1.317526
      objectReference: {fileID: 0}
    - target: {fileID: 8005539219867836046, guid: e19f3966773a601499df8fc7fe7a682d,
        type: 3}
      propertyPath: m_RootOrder
      value: 0
      objectReference: {fileID: 0}
    - target: {fileID: 8005539219867836046, guid: e19f3966773a601499df8fc7fe7a682d,
        type: 3}
      propertyPath: m_LocalPosition.x
      value: 0
      objectReference: {fileID: 0}
    - target: {fileID: 8005539219867836046, guid: e19f3966773a601499df8fc7fe7a682d,
        type: 3}
      propertyPath: m_LocalPosition.y
      value: 0
      objectReference: {fileID: 0}
    - target: {fileID: 8005539219867836046, guid: e19f3966773a601499df8fc7fe7a682d,
        type: 3}
      propertyPath: m_LocalPosition.z
      value: 0
      objectReference: {fileID: 0}
    - target: {fileID: 8005539219867836046, guid: e19f3966773a601499df8fc7fe7a682d,
        type: 3}
      propertyPath: m_LocalRotation.w
      value: 1
      objectReference: {fileID: 0}
    - target: {fileID: 8005539219867836046, guid: e19f3966773a601499df8fc7fe7a682d,
        type: 3}
      propertyPath: m_LocalRotation.x
      value: 0
      objectReference: {fileID: 0}
    - target: {fileID: 8005539219867836046, guid: e19f3966773a601499df8fc7fe7a682d,
        type: 3}
      propertyPath: m_LocalRotation.y
      value: 0
      objectReference: {fileID: 0}
    - target: {fileID: 8005539219867836046, guid: e19f3966773a601499df8fc7fe7a682d,
        type: 3}
      propertyPath: m_LocalRotation.z
      value: 0
      objectReference: {fileID: 0}
    - target: {fileID: 8005539219867836046, guid: e19f3966773a601499df8fc7fe7a682d,
        type: 3}
      propertyPath: m_LocalEulerAnglesHint.x
      value: 0
      objectReference: {fileID: 0}
    - target: {fileID: 8005539219867836046, guid: e19f3966773a601499df8fc7fe7a682d,
        type: 3}
      propertyPath: m_LocalEulerAnglesHint.y
      value: 0
      objectReference: {fileID: 0}
    - target: {fileID: 8005539219867836046, guid: e19f3966773a601499df8fc7fe7a682d,
        type: 3}
      propertyPath: m_LocalEulerAnglesHint.z
      value: 0
      objectReference: {fileID: 0}
    - target: {fileID: 8005539219867836047, guid: e19f3966773a601499df8fc7fe7a682d,
        type: 3}
      propertyPath: m_Name
      value: LevelShore
      objectReference: {fileID: 0}
    m_RemovedComponents: []
  m_SourcePrefab: {fileID: 100100000, guid: e19f3966773a601499df8fc7fe7a682d, type: 3}
--- !u!4 &2074436587 stripped
Transform:
  m_CorrespondingSourceObject: {fileID: 8005539219867836046, guid: e19f3966773a601499df8fc7fe7a682d,
    type: 3}
  m_PrefabInstance: {fileID: 2074436586}
  m_PrefabAsset: {fileID: 0}
--- !u!4 &2074436588 stripped
Transform:
  m_CorrespondingSourceObject: {fileID: 773555877947587903, guid: e19f3966773a601499df8fc7fe7a682d,
    type: 3}
  m_PrefabInstance: {fileID: 2074436586}
  m_PrefabAsset: {fileID: 0}
--- !u!1001 &2136048612
PrefabInstance:
  m_ObjectHideFlags: 0
  serializedVersion: 2
  m_Modification:
    m_TransformParent: {fileID: 2074436588}
    m_Modifications:
    - target: {fileID: 8369092987232642426, guid: 1c1467b71d8d982468977b946158a2a3,
        type: 3}
      propertyPath: m_RootOrder
      value: 0
      objectReference: {fileID: 0}
    - target: {fileID: 8369092987232642426, guid: 1c1467b71d8d982468977b946158a2a3,
        type: 3}
      propertyPath: m_LocalPosition.x
      value: 20.073833
      objectReference: {fileID: 0}
    - target: {fileID: 8369092987232642426, guid: 1c1467b71d8d982468977b946158a2a3,
        type: 3}
      propertyPath: m_LocalPosition.y
      value: -1.565508
      objectReference: {fileID: 0}
    - target: {fileID: 8369092987232642426, guid: 1c1467b71d8d982468977b946158a2a3,
        type: 3}
      propertyPath: m_LocalPosition.z
      value: 0
      objectReference: {fileID: 0}
    - target: {fileID: 8369092987232642426, guid: 1c1467b71d8d982468977b946158a2a3,
        type: 3}
      propertyPath: m_LocalRotation.w
      value: 1
      objectReference: {fileID: 0}
    - target: {fileID: 8369092987232642426, guid: 1c1467b71d8d982468977b946158a2a3,
        type: 3}
      propertyPath: m_LocalRotation.x
      value: -0
      objectReference: {fileID: 0}
    - target: {fileID: 8369092987232642426, guid: 1c1467b71d8d982468977b946158a2a3,
        type: 3}
      propertyPath: m_LocalRotation.y
      value: -0
      objectReference: {fileID: 0}
    - target: {fileID: 8369092987232642426, guid: 1c1467b71d8d982468977b946158a2a3,
        type: 3}
      propertyPath: m_LocalRotation.z
      value: -0
      objectReference: {fileID: 0}
    - target: {fileID: 8369092987232642426, guid: 1c1467b71d8d982468977b946158a2a3,
        type: 3}
      propertyPath: m_LocalEulerAnglesHint.x
      value: 0
      objectReference: {fileID: 0}
    - target: {fileID: 8369092987232642426, guid: 1c1467b71d8d982468977b946158a2a3,
        type: 3}
      propertyPath: m_LocalEulerAnglesHint.y
      value: 0
      objectReference: {fileID: 0}
    - target: {fileID: 8369092987232642426, guid: 1c1467b71d8d982468977b946158a2a3,
        type: 3}
      propertyPath: m_LocalEulerAnglesHint.z
      value: 0
      objectReference: {fileID: 0}
    - target: {fileID: 8369092987232642429, guid: 1c1467b71d8d982468977b946158a2a3,
        type: 3}
      propertyPath: _fovAngle
      value: 90
      objectReference: {fileID: 0}
    - target: {fileID: 8369092987232642429, guid: 1c1467b71d8d982468977b946158a2a3,
        type: 3}
      propertyPath: _enemyRaiseTime
      value: 1
      objectReference: {fileID: 0}
    - target: {fileID: 8369092987232642429, guid: 1c1467b71d8d982468977b946158a2a3,
        type: 3}
      propertyPath: _raycastDownTime
      value: 1
      objectReference: {fileID: 0}
    - target: {fileID: 8369092987232642429, guid: 1c1467b71d8d982468977b946158a2a3,
        type: 3}
      propertyPath: _raycastDownDelay
      value: 1
      objectReference: {fileID: 0}
    - target: {fileID: 8369092987232642429, guid: 1c1467b71d8d982468977b946158a2a3,
        type: 3}
      propertyPath: _raycastStartDelay
      value: 1
      objectReference: {fileID: 0}
    - target: {fileID: 8369092987232642430, guid: 1c1467b71d8d982468977b946158a2a3,
        type: 3}
      propertyPath: m_Name
      value: EnemyTrigger
      objectReference: {fileID: 0}
    m_RemovedComponents: []
  m_SourcePrefab: {fileID: 100100000, guid: 1c1467b71d8d982468977b946158a2a3, type: 3}
--- !u!1001 &8369092987986571743
PrefabInstance:
  m_ObjectHideFlags: 0
  serializedVersion: 2
  m_Modification:
    m_TransformParent: {fileID: 1823963130}
    m_Modifications:
    - target: {fileID: 8369092987232642426, guid: 1c1467b71d8d982468977b946158a2a3,
        type: 3}
      propertyPath: m_RootOrder
      value: 0
      objectReference: {fileID: 0}
    - target: {fileID: 8369092987232642426, guid: 1c1467b71d8d982468977b946158a2a3,
        type: 3}
      propertyPath: m_LocalPosition.x
      value: 20.073833
      objectReference: {fileID: 0}
    - target: {fileID: 8369092987232642426, guid: 1c1467b71d8d982468977b946158a2a3,
        type: 3}
      propertyPath: m_LocalPosition.y
      value: -1.5655079
      objectReference: {fileID: 0}
    - target: {fileID: 8369092987232642426, guid: 1c1467b71d8d982468977b946158a2a3,
        type: 3}
      propertyPath: m_LocalPosition.z
      value: 0
      objectReference: {fileID: 0}
    - target: {fileID: 8369092987232642426, guid: 1c1467b71d8d982468977b946158a2a3,
        type: 3}
      propertyPath: m_LocalRotation.w
      value: 1
      objectReference: {fileID: 0}
    - target: {fileID: 8369092987232642426, guid: 1c1467b71d8d982468977b946158a2a3,
        type: 3}
      propertyPath: m_LocalRotation.x
      value: -0
      objectReference: {fileID: 0}
    - target: {fileID: 8369092987232642426, guid: 1c1467b71d8d982468977b946158a2a3,
        type: 3}
      propertyPath: m_LocalRotation.y
      value: -0
      objectReference: {fileID: 0}
    - target: {fileID: 8369092987232642426, guid: 1c1467b71d8d982468977b946158a2a3,
        type: 3}
      propertyPath: m_LocalRotation.z
      value: -0
      objectReference: {fileID: 0}
    - target: {fileID: 8369092987232642426, guid: 1c1467b71d8d982468977b946158a2a3,
        type: 3}
      propertyPath: m_LocalEulerAnglesHint.x
      value: 0
      objectReference: {fileID: 0}
    - target: {fileID: 8369092987232642426, guid: 1c1467b71d8d982468977b946158a2a3,
        type: 3}
      propertyPath: m_LocalEulerAnglesHint.y
      value: 0
      objectReference: {fileID: 0}
    - target: {fileID: 8369092987232642426, guid: 1c1467b71d8d982468977b946158a2a3,
        type: 3}
      propertyPath: m_LocalEulerAnglesHint.z
      value: 0
      objectReference: {fileID: 0}
    - target: {fileID: 8369092987232642429, guid: 1c1467b71d8d982468977b946158a2a3,
        type: 3}
      propertyPath: _fovAngle
      value: 90
      objectReference: {fileID: 0}
    - target: {fileID: 8369092987232642429, guid: 1c1467b71d8d982468977b946158a2a3,
        type: 3}
      propertyPath: _enemyRaiseTime
      value: 1
      objectReference: {fileID: 0}
    - target: {fileID: 8369092987232642429, guid: 1c1467b71d8d982468977b946158a2a3,
        type: 3}
      propertyPath: _raycastDownTime
      value: 1
      objectReference: {fileID: 0}
    - target: {fileID: 8369092987232642429, guid: 1c1467b71d8d982468977b946158a2a3,
        type: 3}
      propertyPath: _raycastDownDelay
      value: 1
      objectReference: {fileID: 0}
    - target: {fileID: 8369092987232642429, guid: 1c1467b71d8d982468977b946158a2a3,
        type: 3}
      propertyPath: _raycastStartDelay
      value: 1
      objectReference: {fileID: 0}
    - target: {fileID: 8369092987232642430, guid: 1c1467b71d8d982468977b946158a2a3,
        type: 3}
      propertyPath: m_Name
      value: EnemyTrigger
      objectReference: {fileID: 0}
    m_RemovedComponents: []
  m_SourcePrefab: {fileID: 100100000, guid: 1c1467b71d8d982468977b946158a2a3, type: 3}
