{
    "animations": {
        "animation": {}
    },
    "bones": [
        {
            "name": "root"
        },
        {
            "name": "кость",
            "parent": "root"
        }
    ],
    "skeleton": {
        "audio": "C:/Unity docs/gug/gug eyes",
        "hash": "xWp0uyNJUv2F5B0dcxmEMDCRsUE",
        "height": 31,
        "images": "../images/",
        "spine": "3.8.33-beta",
        "width": 69,
        "x": -34.5,
        "y": -15.5
    },
    "skins": [
        {
            "attachments": {
                "bgeye left": {
                    "bgeye left": {
                        "height": 31,
                        "width": 69
                    }
                },
                "pupil left": {
                    "pupil left": {
                        "height": 21,
                        "width": 20
                    }
                }
            },
            "name": "default"
        }
    ],
    "slots": [
        {
            "attachment": "bgeye left",
            "bone": "root",
            "name": "bgeye left"
        },
        {
            "attachment": "pupil left",
            "bone": "кость",
            "name": "pupil left"
        }
    ]
}